dump.vcd
$date
	Tue Aug  5 12:35:16 2025
$end
$version
	QuestaSim Version 10.6c
$end
$timescale
	1ns
$end

$scope module uvm_root $end
$upscope $end

$scope module tb $end
$var reg 1 ! clk $end
$var reg 1 " rst $end

$scope module DUT $end
$var wire 1 # pclk $end
$var wire 1 $ presetn $end
$var wire 1 % paddr [31] $end
$var wire 1 & paddr [30] $end
$var wire 1 ' paddr [29] $end
$var wire 1 ( paddr [28] $end
$var wire 1 ) paddr [27] $end
$var wire 1 * paddr [26] $end
$var wire 1 + paddr [25] $end
$var wire 1 , paddr [24] $end
$var wire 1 - paddr [23] $end
$var wire 1 . paddr [22] $end
$var wire 1 / paddr [21] $end
$var wire 1 0 paddr [20] $end
$var wire 1 1 paddr [19] $end
$var wire 1 2 paddr [18] $end
$var wire 1 3 paddr [17] $end
$var wire 1 4 paddr [16] $end
$var wire 1 5 paddr [15] $end
$var wire 1 6 paddr [14] $end
$var wire 1 7 paddr [13] $end
$var wire 1 8 paddr [12] $end
$var wire 1 9 paddr [11] $end
$var wire 1 : paddr [10] $end
$var wire 1 ; paddr [9] $end
$var wire 1 < paddr [8] $end
$var wire 1 = paddr [7] $end
$var wire 1 > paddr [6] $end
$var wire 1 ? paddr [5] $end
$var wire 1 @ paddr [4] $end
$var wire 1 A paddr [3] $end
$var wire 1 B paddr [2] $end
$var wire 1 C paddr [1] $end
$var wire 1 D paddr [0] $end
$var wire 1 E pwdata [31] $end
$var wire 1 F pwdata [30] $end
$var wire 1 G pwdata [29] $end
$var wire 1 H pwdata [28] $end
$var wire 1 I pwdata [27] $end
$var wire 1 J pwdata [26] $end
$var wire 1 K pwdata [25] $end
$var wire 1 L pwdata [24] $end
$var wire 1 M pwdata [23] $end
$var wire 1 N pwdata [22] $end
$var wire 1 O pwdata [21] $end
$var wire 1 P pwdata [20] $end
$var wire 1 Q pwdata [19] $end
$var wire 1 R pwdata [18] $end
$var wire 1 S pwdata [17] $end
$var wire 1 T pwdata [16] $end
$var wire 1 U pwdata [15] $end
$var wire 1 V pwdata [14] $end
$var wire 1 W pwdata [13] $end
$var wire 1 X pwdata [12] $end
$var wire 1 Y pwdata [11] $end
$var wire 1 Z pwdata [10] $end
$var wire 1 [ pwdata [9] $end
$var wire 1 \ pwdata [8] $end
$var wire 1 ] pwdata [7] $end
$var wire 1 ^ pwdata [6] $end
$var wire 1 _ pwdata [5] $end
$var wire 1 ` pwdata [4] $end
$var wire 1 a pwdata [3] $end
$var wire 1 b pwdata [2] $end
$var wire 1 c pwdata [1] $end
$var wire 1 d pwdata [0] $end
$var wire 1 e psel $end
$var wire 1 f pwrite $end
$var wire 1 g penable $end
$var wire 1 h prdata [31] $end
$var wire 1 i prdata [30] $end
$var wire 1 j prdata [29] $end
$var wire 1 k prdata [28] $end
$var wire 1 l prdata [27] $end
$var wire 1 m prdata [26] $end
$var wire 1 n prdata [25] $end
$var wire 1 o prdata [24] $end
$var wire 1 p prdata [23] $end
$var wire 1 q prdata [22] $end
$var wire 1 r prdata [21] $end
$var wire 1 s prdata [20] $end
$var wire 1 t prdata [19] $end
$var wire 1 u prdata [18] $end
$var wire 1 v prdata [17] $end
$var wire 1 w prdata [16] $end
$var wire 1 x prdata [15] $end
$var wire 1 y prdata [14] $end
$var wire 1 z prdata [13] $end
$var wire 1 { prdata [12] $end
$var wire 1 | prdata [11] $end
$var wire 1 } prdata [10] $end
$var wire 1 ~ prdata [9] $end
$var wire 1 !! prdata [8] $end
$var wire 1 "! prdata [7] $end
$var wire 1 #! prdata [6] $end
$var wire 1 $! prdata [5] $end
$var wire 1 %! prdata [4] $end
$var wire 1 &! prdata [3] $end
$var wire 1 '! prdata [2] $end
$var wire 1 (! prdata [1] $end
$var wire 1 )! prdata [0] $end
$var reg 4 *! cntrl [3:0] $end
$var reg 32 +! reg1 [31:0] $end
$var reg 32 ,! reg2 [31:0] $end
$var reg 32 -! reg3 [31:0] $end
$var reg 32 .! reg4 [31:0] $end
$var reg 32 /! rdata_tmp [31:0] $end
$upscope $end
$upscope $end

$scope begin uvm_pkg $end
$var parameter 32 0! UVM_HDL_MAX_WIDTH $end
$var parameter 32 1! UVM_STREAMBITS $end
$var parameter 32 2! UVM_RADIX $end
$var parameter 32 3! UVM_MACRO_NUMFLAGS $end
$var parameter 32 4! UVM_DEFAULT $end
$var parameter 32 5! UVM_ALL_ON $end
$var parameter 32 6! UVM_FLAGS_ON $end
$var parameter 32 7! UVM_FLAGS_OFF $end
$var parameter 32 8! UVM_COPY $end
$var parameter 32 9! UVM_NOCOPY $end
$var parameter 32 :! UVM_COMPARE $end
$var parameter 32 ;! UVM_NOCOMPARE $end
$var parameter 32 <! UVM_PRINT $end
$var parameter 32 =! UVM_NOPRINT $end
$var parameter 32 >! UVM_RECORD $end
$var parameter 32 ?! UVM_NORECORD $end
$var parameter 32 @! UVM_PACK $end
$var parameter 32 A! UVM_NOPACK $end
$var parameter 32 B! UVM_PHYSICAL $end
$var parameter 32 C! UVM_ABSTRACT $end
$var parameter 32 D! UVM_READONLY $end
$var parameter 32 E! UVM_NODEFPRINT $end
$var parameter 32 F! UVM_MACRO_EXTRAS $end
$var parameter 32 G! UVM_FLAGS $end
$var parameter 32 H! UVM_UNPACK $end
$var parameter 32 I! UVM_CHECK_FIELDS $end
$var parameter 32 J! UVM_END_DATA_EXTRA $end
$var parameter 32 K! UVM_START_FUNCS $end
$var parameter 32 L! UVM_SET $end
$var parameter 32 M! UVM_SETINT $end
$var parameter 32 N! UVM_SETOBJ $end
$var parameter 32 O! UVM_SETSTR $end
$var parameter 32 P! UVM_END_FUNCS $end
$var parameter 32 Q! UVM_STR_CRC_POLYNOMIAL $end
$var parameter 32 R! UVM_STDOUT $end
$var parameter 32 S! UVM_LINE_WIDTH $end
$var parameter 32 T! UVM_NUM_LINES $end
$var parameter 32 U! UVM_SMALL_STRING $end
$var parameter 32 V! UVM_LARGE_STRING $end
$var reg 1 W! uvm_start_uvm_declarations $end
$var integer 32 X! uvm_global_random_seed $end
$var integer 32 Y! UVM_UNBOUNDED_CONNECTIONS $end

$scope function uvm_hdl_check_path $end
$var integer 32 Z! uvm_hdl_check_path $end
$upscope $end

$scope function uvm_hdl_deposit $end
$var integer 32 [! uvm_hdl_deposit $end
$var reg 1024 \! value [1023:0] $end
$upscope $end

$scope function uvm_hdl_force $end
$var integer 32 ]! uvm_hdl_force $end
$var reg 1024 ^! value [1023:0] $end
$upscope $end

$scope task uvm_hdl_force_time $end
$var reg 1024 _! value [1023:0] $end
$var time 64 `! force_time $end
$upscope $end

$scope function uvm_hdl_release_and_read $end
$var integer 32 a! uvm_hdl_release_and_read $end
$var reg 1024 b! value [1023:0] $end
$upscope $end

$scope function uvm_hdl_release $end
$var integer 32 c! uvm_hdl_release $end
$upscope $end

$scope function uvm_hdl_read $end
$var integer 32 d! uvm_hdl_read $end
$var reg 1024 e! value [1023:0] $end
$upscope $end

$scope function uvm_dpi_get_next_arg_c $end
$upscope $end

$scope function uvm_dpi_get_tool_name_c $end
$upscope $end

$scope function uvm_dpi_get_tool_version_c $end
$upscope $end

$scope function uvm_dpi_get_next_arg $end
$upscope $end

$scope function uvm_dpi_get_tool_name $end
$upscope $end

$scope function uvm_dpi_get_tool_version $end
$upscope $end

$scope function uvm_dpi_regcomp $end
$upscope $end

$scope function uvm_dpi_regexec $end
$var integer 32 f! uvm_dpi_regexec $end
$upscope $end

$scope function uvm_dpi_regfree $end
$upscope $end

$scope function uvm_re_match $end
$var integer 32 g! uvm_re_match $end
$upscope $end

$scope function uvm_dump_re_cache $end
$upscope $end

$scope function uvm_glob_to_re $end
$upscope $end

$scope function uvm_revision_string $end
$upscope $end

$scope function uvm_radix_to_string $end
$var integer 32 h! radix $end
$upscope $end

$scope function uvm_instance_scope $end
$var reg 8 i! c [7:0] $end
$var integer 32 j! pos $end
$upscope $end

$scope function uvm_oneway_hash $end
$var integer 32 k! uvm_oneway_hash $end
$var integer 32 l! seed $end
$var reg 1 m! msb $end
$var reg 8 n! current_byte [7:0] $end
$var reg 32 o! crc1 [31:0] $end
$upscope $end

$scope function uvm_create_random_seed $end
$var integer 32 p! uvm_create_random_seed $end
$upscope $end

$scope function uvm_object_value_str $end
$upscope $end

$scope function uvm_leaf_scope $end
$var reg 8 q! scope_separator [7:0] $end
$var reg 8 r! bracket_match [7:0] $end
$var integer 32 s! pos $end
$var integer 32 t! bmatches $end
$upscope $end

$scope function uvm_vector_to_string $end
$var reg 4096 u! value [4095:0] $end
$var integer 32 v! size $end
$var integer 32 w! radix $end
$upscope $end

$scope function uvm_get_array_index_int $end
$var integer 32 x! uvm_get_array_index_int $end
$var reg 1 y! is_wildcard $end
$var integer 32 z! i $end
$upscope $end

$scope function uvm_get_array_index_string $end
$var reg 1 {! is_wildcard $end
$var integer 32 |! i $end
$upscope $end

$scope function uvm_is_array $end
$var reg 1 }! uvm_is_array $end
$upscope $end

$scope function uvm_has_wildcard $end
$upscope $end

$scope task run_test $end
$upscope $end

$scope function global_stop_request $end
$upscope $end

$scope function set_global_timeout $end
$var time 64 ~! timeout $end
$var reg 1 !" overridable $end
$upscope $end

$scope function set_global_stop_timeout $end
$var time 64 "" timeout $end
$upscope $end

$scope function uvm_report_enabled $end
$var reg 1 #" uvm_report_enabled $end
$var integer 32 $" verbosity $end
$var reg 2 %" severity [1:0] $end
$upscope $end

$scope function uvm_report $end
$var reg 2 &" severity [1:0] $end
$var integer 32 '" verbosity $end
$var integer 32 (" line $end
$upscope $end

$scope function uvm_report_info $end
$var integer 32 )" verbosity $end
$var integer 32 *" line $end
$upscope $end

$scope function uvm_report_warning $end
$var integer 32 +" verbosity $end
$var integer 32 ," line $end
$upscope $end

$scope function uvm_report_error $end
$var integer 32 -" verbosity $end
$var integer 32 ." line $end
$upscope $end

$scope function uvm_report_fatal $end
$var integer 32 /" verbosity $end
$var integer 32 0" line $end
$upscope $end

$scope function uvm_string_to_severity $end
$var reg 1 1" uvm_string_to_severity $end
$var reg 2 2" sev [1:0] $end
$upscope $end

$scope function uvm_string_to_action $end
$upscope $end

$scope function set_config_int $end
$var reg 4096 3" value [4095:0] $end
$upscope $end

$scope function set_config_object $end
$var reg 1 4" clone $end
$upscope $end

$scope function set_config_string $end
$upscope $end

$scope function uvm_is_match $end
$var reg 1 5" uvm_is_match $end
$upscope $end

$scope function uvm_string_to_bits $end
$var reg 115200 6" uvm_string_to_bits [115199:0] $end
$upscope $end

$scope function uvm_bits_to_string $end
$var reg 115200 7" str [115199:0] $end
$upscope $end

$scope task uvm_wait_for_nba_region $end
$var integer 32 8" nba $end
$var integer 32 9" next_nba $end
$upscope $end

$scope function uvm_split_string $end
$upscope $end

$scope function uvm_hdl_concat2string $end
$upscope $end
$upscope $end

$scope begin testbench_sv_unit $end
$upscope $end

$scope begin std $end
$upscope $end

$scope begin questa_uvm_pkg $end
$upscope $end
$enddefinitions $end
#0
$dumpvars
0!
0"
b0 *!
b0 +!
b0 ,!
b0 -!
b0 .!
b0 /!
0{!
0}!
01"
b0 2"
bx 6"
bx 7"
bx \!
bx ^!
bx _!
bx b!
bx e!
1W!
0m!
b1101101 n!
b1101110111100101011110110110 o!
bx u!
0y!
0!"
0#"
b0 %"
b0 &"
bx 3"
04"
05"
b10000000000 0!
b1000000000000 1!
b1111000000000000000000000000 2!
b10001 3!
b10101010101 4!
b101010101 5!
b101010101 6!
b0 7!
b1 8!
b10 9!
b100 :!
b1000 ;!
b10000 <!
b100000 =!
b1000000 >!
b10000000 ?!
b100000000 @!
b1000000000 A!
b10000000000000 B!
b100000000000000 C!
b1000000000000000 D!
b10000000000000000 E!
b100000000000000000 F!
b100000000000000001 G!
b100000000000000010 H!
b100000000000000011 I!
b100000000000000100 J!
b100000000000000101 K!
b100000000000000110 L!
b100000000000000110 M!
b100000000000000111 N!
b100000000000001000 O!
b100000000000001000 P!
b100110000010001110110110110 Q!
b1 R!
b1111000 S!
b1111000 T!
b1110111111 U!
b11100000111111111 V!
b0 h!
b0 q!
b0 r!
b0 s!
b0 t!
b0 |!
b0 Z!
b0 [!
b0 ]!
b0 a!
b0 c!
b0 d!
b1 f!
b0 g!
b1101001011000001111100000011110 X!
b101110 i!
b111 j!
b10110011000010010001101000010000 k!
b1101001011000001111100000011110 l!
b11011101011001011001110001001 p!
b0 v!
b0 w!
b0 x!
b0 z!
b111110100 $"
b0 '"
b0 ("
b11001000 )"
b11011001 *"
b0 +"
b0 ,"
b0 -"
b0 ."
b0 /"
b0 0"
b100100 8"
b100100 9"
b11111111111111111111111111111111 Y!
bx `!
bx ~!
bx ""
0#
0$
xD
xC
xB
xA
x@
x?
x>
x=
x<
x;
x:
x9
x8
x7
x6
x5
x4
x3
x2
x1
x0
x/
x.
x-
x,
x+
x*
x)
x(
x'
x&
x%
xd
xc
xb
xa
x`
x_
x^
x]
x\
x[
xZ
xY
xX
xW
xV
xU
xT
xS
xR
xQ
xP
xO
xN
xM
xL
xK
xJ
xI
xH
xG
xF
xE
xe
xf
xg
0)!
0(!
0'!
0&!
0%!
0$!
0#!
0"!
0!!
0~
0}
0|
0{
0z
0y
0x
0w
0v
0u
0t
0s
0r
0q
0p
0o
0n
0m
0l
0k
0j
0i
0h
$end
#10
1"
1!
1$
1#
1f
1d
0c
0b
0a
0`
0_
0^
0]
0\
0[
0Z
0Y
0X
0W
0V
0U
0T
0S
0R
0Q
0P
0O
0N
0M
0L
0K
0J
0I
0H
0G
0F
0E
0D
0C
1B
0A
0@
0?
0>
0=
0<
0;
0:
09
08
07
06
05
04
03
02
01
00
0/
0.
0-
0,
0+
0*
0)
0(
0'
0&
0%
1e
#20
0!
0#
#30
1!
1#
#40
0!
0#
#50
1!
1#
1g
#60
0!
0#
#70
1!
1#
b100101 9"
b110010000 $"
b100101100 $"
b110010000 $"
b10110011000010010001101000010001 p!
b100101 8"
0e
0g
#80
0!
0#
#90
1!
1#
1e
#100
0!
0#
#110
1!
1#
#120
0!
0#
#130
1!
1#
1g
#140
0!
0#
#150
1!
1#
b100110 9"
b100101100 $"
b110010000 $"
b10110011000010010001101000010011 p!
b100110 8"
0e
0g
#160
0!
0#
#170
1!
1#
0f
1e
#180
0!
0#
#190
1!
1#
#200
0!
0#
#210
1!
1#
1g
#220
0!
0#
#230
1!
1#
b100111 9"
b100101100 $"
b110010000 $"
b10110011000010010001101000010110 p!
b100111 8"
0e
0g
#240
0!
0#
#250
1!
1#
1f
1`
0B
1A
1e
#260
0!
0#
#270
1!
1#
#280
0!
0#
#290
1!
1#
1g
#300
0!
0#
#310
1!
1#
b101000 9"
b100101100 $"
b110010000 $"
b10110011000010010001101000011010 p!
b10001 ,!
b101000 8"
0e
0g
#320
0!
0#
#330
1!
1#
1e
#340
0!
0#
#350
1!
1#
#360
0!
0#
#370
1!
1#
1g
#380
0!
0#
#390
1!
1#
b101001 9"
b100101100 $"
b110010000 $"
b10110011000010010001101000011111 p!
b101001 8"
0e
0g
#400
0!
0#
#410
1!
1#
0f
1e
#420
0!
0#
#430
1!
1#
#440
0!
0#
#450
1!
1#
1g
#460
0!
0#
#470
1!
1#
b101010 9"
b100101100 $"
b110010000 $"
b10110011000010010001101000100101 p!
b10001 /!
b101010 8"
1)!
1%!
0e
0g
#480
0!
0#
#490
1!
1#
1f
0d
1c
0`
1_
1B
1e
#500
0!
0#
#510
1!
1#
#520
0!
0#
#530
1!
1#
1g
#540
0!
0#
#550
1!
1#
b101011 9"
b100101100 $"
b110010000 $"
b10110011000010010001101000101100 p!
b100010 -!
b101011 8"
0e
0g
#560
0!
0#
#570
1!
1#
1`
0_
1e
#580
0!
0#
#590
1!
1#
#600
0!
0#
#610
1!
1#
1g
#620
0!
0#
#630
1!
1#
b101100 9"
b100101100 $"
b110010000 $"
b10110011000010010001101000110100 p!
b10010 -!
b101100 8"
0e
0g
#640
0!
0#
#650
1!
1#
0f
1e
#660
0!
0#
#670
1!
1#
#680
0!
0#
#690
1!
1#
1g
#700
0!
0#
#710
1!
1#
b101101 9"
b100101100 $"
b110010000 $"
b10110011000010010001101000111101 p!
b10010 /!
b101101 8"
0)!
1(!
0e
0g
#720
0!
0#
#730
1!
1#
1f
1d
1_
0B
0A
1@
1e
#740
0!
0#
#750
1!
1#
#760
0!
0#
#770
1!
1#
1g
#780
0!
0#
#790
1!
1#
b101110 9"
b100101100 $"
b110010000 $"
b10110011000010010001101001000111 p!
b110011 .!
b101110 8"
0e
0g
#800
0!
0#
#810
1!
1#
0`
1e
#820
0!
0#
#830
1!
1#
#840
0!
0#
#850
1!
1#
1g
#860
0!
0#
#870
1!
1#
b101111 9"
b100101100 $"
b110010000 $"
b10110011000010010001101001010010 p!
b100011 .!
b101111 8"
0e
0g
#880
0!
0#
#890
1!
1#
0f
1e
#900
0!
0#
#910
1!
1#
#920
0!
0#
#930
1!
1#
1g
#940
0!
0#
#950
1!
1#
b110000 9"
b100101100 $"
b100011 /!
b110000 8"
1)!
0%!
1$!
0e
0g
#960
0!
0#
#970
1!
1#
b110001 9"
b111110100 $"
b110010 9"
b110001 8"
b110010 8"
b110011 9"
b110100 9"
b110011 8"
b110100 8"
b11011101011001011001110011011 p!
b1000011000000011001110110101000 p!
b1100100110110000001010001110101 p!
b11100101000111011011101111110111 p!
b10100110010111011110000011011000 p!
b11001010011011010110011110001011 p!
b10000001110000000101111111101101 p!
b10001001001000011100010000010000 p!
b101010101000101111011011111101 p!
b110100111111001111111010100111 p!
b10011111001011101100000111101000 p!
b1010100010010000110011000101111 p!
b10110010010001011001001110110010 p!
b10110100010100011100101001111 p!
b11111000110001000001101110001 p!
b111101010001101101110111001100 p!
b1011110101111111111110001000000 p!
b10011011100000000010010101001100 p!
b11101111001000101001001000010111 p!
b1100100100010011011011100001011 p!
b10011111000100111010001111110011 p!
b10101111010011111001000011110111 p!
b10100010000010011100111101111010 p!
b111000011000110011100110101111 p!
b11011100000111001000010000111110 p!
b11011101011001011001110101110 p!
b1000011000000011001110110111011 p!
b1100100110110000001010010001000 p!
b11100101000111011011110000001010 p!
b10100110010111011110000011101011 p!
b11001010011011010110011110011110 p!
b10000001110000000110000000000000 p!
b10001001001000011100010000100011 p!
b101010101000101111011100010000 p!
b110100111111001111111010111010 p!
b10011111001011101100000111111011 p!
b1010100010010000110011001000010 p!
b10110010010001011001001111000101 p!
b10110100010100011100101100010 p!
b11111000110001000001110000100 p!
b111101010001101101110111011111 p!
b1011110101111111111110001010011 p!
b10011011100000000010010101011111 p!
b11101111001000101001001000101010 p!
b1100100100010011011011100011110 p!
b10011111000100111010010000000110 p!
b10101111010011111001000100001010 p!
b10100010000010011100111110001101 p!
b111000011000110011100111000010 p!
b11011100000111001000010001010001 p!
b11011101011001011001111000010 p!
b1000011000000011001110111001111 p!
b1100100110110000001010010011100 p!
b11100101000111011011110000011110 p!
b10100110010111011110000011111111 p!
b11001010011011010110011110110010 p!
b10000001110000000110000000010100 p!
b10001001001000011100010000110111 p!
b101010101000101111011100100100 p!
b110100111111001111111011001110 p!
b10011111001011101100001000001111 p!
b1010100010010000110011001010110 p!
b10110010010001011001001111011001 p!
b10110100010100011100101110110 p!
b11111000110001000001110011000 p!
b111101010001101101110111110011 p!
b1011110101111111111110001100111 p!
b10011011100000000010010101110011 p!
b11101111001000101001001000111110 p!
b1100100100010011011011100110010 p!
b10011111000100111010010000011010 p!
b10101111010011111001000100011110 p!
b10100010000010011100111110100001 p!
b111000011000110011100111010110 p!
b11011100000111001000010001100101 p!
b11011100000111001000010001111010 p!
b111000011000110011100111101011 p!
b10100010000010011100111110110110 p!
b1100100100010011011011101000111 p!
b1100100110110000001010010110001 p!
b11011101011001011001111010111 p!
b1000011000000011001110111100100 p!
b10100110010111011110000100010100 p!
b11100101000111011011110000110011 p!
b11101111001000101001001001010011 p!
b110100111111001111111011100011 p!
b11001010011011010110011111000111 p!
b10000001110000000110000000101001 p!
b10001001001000011100010001001100 p!
b101010101000101111011100111001 p!
b10011111001011101100001000100100 p!
b1010100010010000110011001101011 p!
b10011011100000000010010110001000 p!
b10110010010001011001001111101110 p!
b10110100010100011100110001011 p!
b11111000110001000001110101101 p!
b111101010001101101111000001000 p!
b1011110101111111111110001111100 p!
b10101111010011111001000100110011 p!
b10011111000100111010010000101111 p!
